<svg xmlns="http://www.w3.org/2000/svg" width="555.5" height="18.469" viewBox="0 0 555.5 18.469">
<defs>
    <style>
      .cls-1 {
        fill: none;
        stroke: #fff;
        stroke-width: 1.5px;
        fill-rule: evenodd;
      }
    </style>
  </defs>
  <path class="cls-1" d="M524,638l256.944-.346s9.719,2.908,10.067,6.3-8.282,5.874-7.91,0,8.329-10.89,15.1-9.8S807.01,639.229,809,643s-2.652,8.4-5.764,7.956-8.074-2.777-6.472-7.7,7.308-9.891,12.944-9.1S821.346,640.783,822,644s-1.309,6.222-5,5-3.722-4.2-2-6,5.826-5.039,8.371-5.346S1078,638,1078,638" transform="translate(-523.25 -633.25)"/>
</svg>
